BST 260 Midterm
…
new_cases_7dayavg = rollmean(new_cases, k = 7, fill = NA)
new_cases_7dayavg

##  [1]       NA       NA       NA       NA 6.857143 6.714286 7.000000 7.428571
##  [9] 8.571429 9.857143 9.000000       NA       NA       NA

When you calculate the new cases and seven-day rolling average in the Johns Hopkins data, be sure to remember to group by country and arrange by date, so that the variables are calculated for adjacent days within each country.

When you make your plot, you will get a warning message about rows with missing values being removed. If you understood the hint about calculating the rolling average, you'll know that this is no cause for alarm!

# arranged by date, then I group by country, then calculate the lag (new cases per day)
sum_jhu %>% arrange(date)

## # A tibble: 53,960 x 3
##    Country_Region      date       cases
##    <chr>               <date>     <dbl>
##  1 Afghanistan         2020-01-22     0
##  2 Albania             2020-01-22     0
##  3 Algeria             2020-01-22     0
##  4 Andorra             2020-01-22     0
##  5 Angola              2020-01-22     0
##  6 Antigua and Barbuda 2020-01-22     0
##  7 Argentina           2020-01-22     0
##  8 Armenia             2020-01-22     0
##  9 Australia           2020-01-22     0
## 10 Austria             2020-01-22     0
## # ... with 53,950 more rows
…
# calculating rolling average per population

# calculating the average number of new cases per million
full_dat <- merge_dat %>% mutate(avg_pop = (rollavg/sum_pop)*1000000)

full_dat %>% filter(Country_Region=="Germany")

## # A tibble: 284 x 7
##    Country_Region   sum_pop date       cases new_cases rollavg  avg_pop
##    <chr>              <dbl> <date>     <dbl>     <dbl>   <dbl>    <dbl>
##  1 Germany        166803158 2020-01-22     0        NA  NA     NA      
##  2 Germany        166803158 2020-01-23     0         0  NA     NA      
##  3 Germany        166803158 2020-01-24     0         0  NA     NA      
##  4 Germany        166803158 2020-01-25     0         0  NA     NA      
##  5 Germany        166803158 2020-01-26     0         0   0.571  0.00343
##  6 Germany        166803158 2020-01-27     1         1   0.571  0.00343
##  7 Germany        166803158 2020-01-28     4         3   0.714  0.00428
##  8 Germany        166803158 2020-01-29     4         0   1.14   0.00685
##  9 Germany        166803158 2020-01-30     4         0   1.43   0.00856
## 10 Germany        166803158 2020-01-31     5         1   1.57   0.00942
## # ... with 274 more rows
…
